%YAML 1.1
%TAG !u! tag:unity3d.com,2011:
--- !u!221 &22100000
AnimatorOverrideController:
  m_ObjectHideFlags: 0
  m_CorrespondingSourceObject: {fileID: 0}
  m_PrefabInstance: {fileID: 0}
  m_PrefabAsset: {fileID: 0}
  m_Name: LightBrownDeer
  m_Controller: {fileID: 9100000, guid: 5b1f461c225c18f45b326f90046706d4, type: 2}
  m_Clips:
  - m_OriginalClip: {fileID: 7400000, guid: 2fc3326fe37722d4f98d69c258934ef0, type: 2}
    m_OverrideClip: {fileID: 7400000, guid: 12c8c2d8a35b19741927db45891cbe9e, type: 2}
  - m_OriginalClip: {fileID: 7400000, guid: 9e11685d76109af4f9eef91d0418a674, type: 2}
    m_OverrideClip: {fileID: 7400000, guid: f2812f6de54e78e47946808b5b59d4e1, type: 2}
  - m_OriginalClip: {fileID: 7400000, guid: 82620e582dc9e7d448a63d9af89a02b7, type: 2}
    m_OverrideClip: {fileID: 7400000, guid: 80a4f61bd4999254f8c5ec61b7676182, type: 2}
  - m_OriginalClip: {fileID: 7400000, guid: 1be8c5ad543f20844969f7e007a5b492, type: 2}
    m_OverrideClip: {fileID: 7400000, guid: 19d80890e078a2542a0f25a61021ee02, type: 2}
  - m_OriginalClip: {fileID: 7400000, guid: 468f1a1e6094d2542ae534cde477767c, type: 2}
    m_OverrideClip: {fileID: 7400000, guid: c533ae7da4af0e14a901340160220de4, type: 2}
