%YAML 1.1
%TAG !u! tag:unity3d.com,2011:
--- !u!114 &11400000
MonoBehaviour:
  m_ObjectHideFlags: 0
  m_CorrespondingSourceObject: {fileID: 0}
  m_PrefabInstance: {fileID: 0}
  m_PrefabAsset: {fileID: 0}
  m_GameObject: {fileID: 0}
  m_Enabled: 1
  m_EditorHideFlags: 0
  m_Script: {fileID: 11500000, guid: f988a4c5a5951334ca48447e66a4b6f1, type: 3}
  m_Name: DuckSilver
  m_EditorClassIdentifier: 
  prefabName: DuckSilver
  moveSpeed: 1
  m_sprite: {fileID: -3989348002562357748, guid: 6670653350f7b784db752e112a777323,
    type: 3}
  visitTime: 90
  activityTime: 15
  decorationUnlock: 0
  baseAnimations: {fileID: 22100000, guid: eccb4978e14675248afdda19653d87e9, type: 2}
  animalNumber: 6
